Kertas Kerja EMON
…
cek_ganda <- function(data) {
  
  y <- 
    data |>
    select(ketua_pmo, pegawai) |>
    group_by(ketua_pmo, pegawai) |>
    count() |>
    arrange(desc(n))  
  
  return(y)
}

cek_ganda(tbl_surat)

# A tibble: 40 × 3
# Groups:   ketua_pmo, pegawai [40]
   ketua_pmo                  pegawai                                n
   <chr>                      <chr>                              <int>
 1 Averinus Emanuel           Maryo Yoseph Ambarto Dwi Sili Osan     1
 2 Choirunnisa Jati Safitri   Alvino Alexandro Yappy                 1
 3 Choirunnisa Jati Safitri   Clementine Mursitadewi Riantoby        1
 4 Choirunnisa Jati Safitri   Maryo Yoseph Ambarto Dwi Sili Osan     1
 5 Choirunnisa Jati Safitri   Valentinus Nong Sina Gharu             1
 6 Felia Tifani Cornelia Klau Neka Putri Fardila                     1
 7 Felia Tifani Cornelia Klau Valentinus Nong Sina Gharu             1
 8 Fransiskus Saverius Soba   Cornelia Christina Temu                1
 9 Imelda Sandrawati Ambot    Juliana Marbun                         1
10 Imelda Sandrawati Ambot    Maria Diaz De Rozari                   1
# ℹ 30 more rows
…
